sim/build/SPI_pymtl2.SPIStacks.FPUStack.test.FPUStack_test__test_stack_8bit_basic_0x0.vcd
$date
  Thu Apr 22 15:42:14 2021
$end
$version
  PyMTL 3 (Mamba)
$end
$timescale
 10ps
$end

$scope module top $end
  $var reg 1 - reset $end
  $var reg 1 . clk $end
  $scope module fpu_stack $end
    $var reg 1 ! minion_inter.miso $end
    $var reg 1 " minion_inter.mosi $end
    $var reg 1 # minion_inter.sclk $end
    $var reg 1 $ minion_inter.cs $end
    $var reg 1 - reset $end
    $var reg 1 . clk $end
    $scope module fpu_retimed $end
      $var reg 1 > s_DOT_resp_val $end
      $var reg 128 ? s_DOT_resp_msg $end
      $var reg 1 @ s_DOT_req_rdy $end
      $var reg 1 A s_DOT_resp_rdy $end
      $var reg 1 B s_DOT_req_val $end
      $var reg 128 C s_DOT_req_msg $end
      $var reg 1 ) resp_val $end
      $var reg 1 ( resp_rdy $end
      $var reg 128 ' resp_msg $end
      $var reg 1 , req_val $end
      $var reg 1 + req_rdy $end
      $var reg 128 * req_msg $end
      $var reg 1 - reset $end
      $var reg 1 . clk $end
    $upscope $end
    $scope module spi_stack $end
      $var reg 4 % hard_bits $end
      $var reg 128 ' recv_msg $end
      $var reg 1 ( recv_rdy $end
      $var reg 1 ) recv_val $end
      $var reg 128 * send_msg $end
      $var reg 1 + send_rdy $end
      $var reg 1 , send_val $end
      $var reg 1 ! miso $end
      $var reg 1 " mosi $end
      $var reg 1 $ cs $end
      $var reg 1 # sclk $end
      $var reg 1 - reset $end
      $var reg 1 . clk $end
      $scope module spi_queue $end
        $var reg 128 D s_DOT_to_master $end
        $var reg 1 E s_DOT_send_val $end
        $var reg 128 F s_DOT_send_msg $end
        $var reg 1 G s_DOT_recv_rdy $end
        $var reg 1 H s_DOT_serve $end
        $var reg 1 I s_DOT_send_rdy $end
        $var reg 1 J s_DOT_seize $end
        $var reg 1 K s_DOT_reset $end
        $var reg 1 L s_DOT_recv_val $end
        $var reg 128 M s_DOT_recv_msg $end
        $var reg 1 N s_DOT_hard_msg $end
        $var reg 128 O s_DOT_from_master $end
        $var reg 128 < to_master $end
        $var reg 1 7 serve $end
        $var reg 1 , send_val $end
        $var reg 1 + send_rdy $end
        $var reg 128 * send_msg $end
        $var reg 1 = seize $end
        $var reg 1 ) recv_val $end
        $var reg 1 ( recv_rdy $end
        $var reg 128 ' recv_msg $end
        $var reg 1 8 hard_msg $end
        $var reg 128 ; from_master $end
        $var reg 1 - reset $end
        $var reg 1 . clk $end
      $upscope $end
      $scope module spi_loopback $end
        $var reg 128 P s_DOT_to_master $end
        $var reg 128 Q s_DOT_to_device $end
        $var reg 1 R s_DOT_serve $end
        $var reg 1 S s_DOT_loop_en $end
        $var reg 128 T s_DOT_from_master $end
        $var reg 128 U s_DOT_from_device $end
        $var reg 128 : to_master $end
        $var reg 128 ; to_device $end
        $var reg 1 7 serve $end
        $var reg 1 & loop_en $end
        $var reg 128 6 from_master $end
        $var reg 128 < from_device $end
        $var reg 1 - reset $end
        $var reg 1 . clk $end
      $upscope $end
      $scope module spi_hardbits $end
        $var reg 128 V s_DOT_to_master $end
        $var reg 128 W s_DOT_to_device $end
        $var reg 1 X s_DOT_hard_msg $end
        $var reg 4 Y s_DOT_detected_bits $end
        $var reg 1 Z s_DOT_serve $end
        $var reg 1 [ s_DOT_reset $end
        $var reg 128 \ s_DOT_from_master $end
        $var reg 128 ] s_DOT_from_device $end
        $var reg 128 5 to_master $end
        $var reg 128 6 to_device $end
        $var reg 1 7 serve $end
        $var reg 1 8 hard_msg $end
        $var reg 128 9 from_master $end
        $var reg 128 : from_device $end
        $var reg 4 % detected_bits $end
        $var reg 1 - reset $end
        $var reg 1 . clk $end
      $upscope $end
      $scope module spi_minion $end
        $var reg 128 ^ s_DOT_to_device $end
        $var reg 1 _ s_DOT_serve $end
        $var reg 1 ` s_DOT_seize $end
        $var reg 1 a s_DOT_miso $end
        $var reg 1 b s_DOT_sclk $end
        $var reg 1 c s_DOT_reset $end
        $var reg 1 d s_DOT_mosi $end
        $var reg 128 e s_DOT_from_device $end
        $var reg 1 f s_DOT_cs $end
        $var reg 128 9 to_device $end
        $var reg 1 7 serve $end
        $var reg 1 = seize $end
        $var reg 1 # sclk $end
        $var reg 1 " mosi $end
        $var reg 1 ! miso $end
        $var reg 128 5 from_device $end
        $var reg 1 $ cs $end
        $var reg 1 - reset $end
        $var reg 1 . clk $end
      $upscope $end
    $upscope $end
  $upscope $end
  $scope module master $end
    $var reg 1 g msg_from_minion $end
    $var reg 1 h valid_progressing $end
    $var reg 1 i result_read $end
    $var reg 128 j miso_reg_pointer $end
    $var reg 128 / miso_reg $end
    $var reg 128 k mosi_reg_pointer $end
    $var reg 1 l sclk_state $end
    $var reg 4 m sclk_cntr $end
    $var reg 1 n sclk_en $end
    $var reg 32 o cntr_max $end
    $var reg 32 p cntr $end
    $var reg 3 q state $end
    $var reg 1 ! master_inter.miso $end
    $var reg 1 " master_inter.mosi $end
    $var reg 1 # master_inter.sclk $end
    $var reg 1 $ master_inter.cs $end
    $var reg 1 1 send.rdy $end
    $var reg 1 2 send.val $end
    $var reg 128 / send.msg $end
    $var reg 1 3 recv.rdy $end
    $var reg 1 4 recv.val $end
    $var reg 128 0 recv.msg $end
    $var reg 1 - reset $end
    $var reg 1 . clk $end
    $scope module mosi_reg $end
      $var reg 1 r en $end
      $var reg 128 0 in_ $end
      $var reg 128 s out $end
      $var reg 1 - reset $end
      $var reg 1 . clk $end
    $upscope $end
  $upscope $end
  $scope module sink $end
    $var reg 1 1 recv.rdy $end
    $var reg 1 2 recv.val $end
    $var reg 128 / recv.msg $end
    $var reg 1 - reset $end
    $var reg 1 . clk $end
  $upscope $end
  $scope module src $end
    $var reg 1 3 send.rdy $end
    $var reg 1 4 send.val $end
    $var reg 128 0 send.msg $end
    $var reg 1 - reset $end
    $var reg 1 . clk $end
  $upscope $end
$upscope $end
$enddefinitions $end

b0b0 !
b0b0 "
b0b0 #
b0b0 $
b0b0000 %
b0b0 &
b0b00000000000000000000000000000000000000000000000000000000000000000000000000000000000000000000000000000000000000000000000000000000 '
b0b0 (
b0b0 )
b0b00000000000000000000000000000000000000000000000000000000000000000000000000000000000000000000000000000000000000000000000000000000 *
b0b0 +
b0b0 ,
b0b0 -
b0b0 .
b0b00000000000000000000000000000000000000000000000000000000000000000000000000000000000000000000000000000000000000000000000000000000 /
b0b00000000000000000000000000000000000000000000000000000000000000000000000000000000000000000000000000000000000000000000000000000000 0
b0b0 1
b0b0 2
b0b0 3
b0b0 4
b0b00000000000000000000000000000000000000000000000000000000000000000000000000000000000000000000000000000000000000000000000000000000 5
b0b00000000000000000000000000000000000000000000000000000000000000000000000000000000000000000000000000000000000000000000000000000000 6
b0b0 7
b0b0 8
b0b00000000000000000000000000000000000000000000000000000000000000000000000000000000000000000000000000000000000000000000000000000000 9
b0b00000000000000000000000000000000000000000000000000000000000000000000000000000000000000000000000000000000000000000000000000000000 :
b0b00000000000000000000000000000000000000000000000000000000000000000000000000000000000000000000000000000000000000000000000000000000 ;
b0b00000000000000000000000000000000000000000000000000000000000000000000000000000000000000000000000000000000000000000000000000000000 <
b0b0 =
b0b0 >
b0b00000000000000000000000000000000000000000000000000000000000000000000000000000000000000000000000000000000000000000000000000000000 ?
b0b0 @
b0b0 A
b0b0 B
b0b00000000000000000000000000000000000000000000000000000000000000000000000000000000000000000000000000000000000000000000000000000000 C
b0b00000000000000000000000000000000000000000000000000000000000000000000000000000000000000000000000000000000000000000000000000000000 D
b0b0 E
b0b00000000000000000000000000000000000000000000000000000000000000000000000000000000000000000000000000000000000000000000000000000000 F
b0b0 G
b0b0 H
b0b0 I
b0b0 J
b0b0 K
b0b0 L
b0b00000000000000000000000000000000000000000000000000000000000000000000000000000000000000000000000000000000000000000000000000000000 M
b0b0 N
b0b00000000000000000000000000000000000000000000000000000000000000000000000000000000000000000000000000000000000000000000000000000000 O
b0b00000000000000000000000000000000000000000000000000000000000000000000000000000000000000000000000000000000000000000000000000000000 P
b0b00000000000000000000000000000000000000000000000000000000000000000000000000000000000000000000000000000000000000000000000000000000 Q
b0b0 R
b0b0 S
b0b00000000000000000000000000000000000000000000000000000000000000000000000000000000000000000000000000000000000000000000000000000000 T
b0b00000000000000000000000000000000000000000000000000000000000000000000000000000000000000000000000000000000000000000000000000000000 U
b0b00000000000000000000000000000000000000000000000000000000000000000000000000000000000000000000000000000000000000000000000000000000 V
b0b00000000000000000000000000000000000000000000000000000000000000000000000000000000000000000000000000000000000000000000000000000000 W
b0b0 X
b0b0000 Y
b0b0 Z
b0b0 [
b0b00000000000000000000000000000000000000000000000000000000000000000000000000000000000000000000000000000000000000000000000000000000 \
b0b00000000000000000000000000000000000000000000000000000000000000000000000000000000000000000000000000000000000000000000000000000000 ]
b0b00000000000000000000000000000000000000000000000000000000000000000000000000000000000000000000000000000000000000000000000000000000 ^
b0b0 _
b0b0 `
b0b0 a
b0b0 b
b0b0 c
b0b0 d
b0b00000000000000000000000000000000000000000000000000000000000000000000000000000000000000000000000000000000000000000000000000000000 e
b0b0 f
b0b0 g
b0b0 h
b0b0 i
b0b00000000000000000000000000000000000000000000000000000000000000000000000000000000000000000000000000000000000000000000000000000000 j
b0b00000000000000000000000000000000000000000000000000000000000000000000000000000000000000000000000000000000000000000000000000000000 k
b0b0 l
b0b0000 m
b0b0 n
b0b00000000000000000000000000000000 o
b0b00000000000000000000000000000000 p
b0b000 q
b0b0 r
b0b00000000000000000000000000000000000000000000000000000000000000000000000000000000000000000000000000000000000000000000000000000000 s

#0
b0b1 .

b0b1 $
b0b1 (
b0b1 +
b0b1 -
b0b00000000000000000000000000000000000000000000000000000000000000000000000000000000000000000000000000000000000000000000000000000000 /
b0b0 1
b0b00000000000000000000000000000000000000000000000000000000000000000000000000000000000000000000000000000000000000000000000000000000 5
b0b0 7
b0b00000000000000000000000000000000000000000000000000000000000000000000000000000000000000000000000000000000000000000000000000000000 9
b0b0 =
b0b00000000000000000000000000000000000000000000000000000000000000000000000000000000000000000000000000000000000000000000000000000000 ?
b0b1 @
b0b1 A
b0b00000000000000000000000000000000000000000000000000000000000000000000000000000000000000000000000000000000000000000000000000000000 C
b0b0 E
b0b00000000000000000000000000000000000000000000000000000000000000000000000000000000000000000000000000000000000000000000000000000000 F
b0b1 G
b0b1 I
b0b1 K
b0b00000000000000000000000000000000000000000000000000000000000000000000000000000000000000000000000000000000000000000000000000000000 M
b0b0 N
b0b00000000000000000000000000000000000000000000000000000000000000000000000000000000000000000000000000000000000000000000000000000000 O
b0b0 R
b0b00000000000000000000000000000000000000000000000000000000000000000000000000000000000000000000000000000000000000000000000000000000 T
b0b0 X
b0b0000 Y
b0b0 Z
b0b1 [
b0b00000000000000000000000000000000000000000000000000000000000000000000000000000000000000000000000000000000000000000000000000000000 \
b0b0 _
b0b1 c
b0b00000000000000000000000000000000000000000000000000000000000000000000000000000000000000000000000000000000000000000000000000000000 e
b0b1 f
b0b00000000000000000000000000000000000000000000000000000000000000000000000000000000000000000000000000000000000000000000000000000000 j
b0b0 l
b0b0000 m
b0b0 n
b0b00000000000000000000000000000100 o
b0b000 q
b0b0 r
b0b00000000000000000000000000000000000000000000000000000000000000000000000000000000000000000000000000000000000000000000000000000000 s

#50
b0b0 .
#100
b0b1 .

b0b1 1
b0b1 3
b0b1 i
b0b00000000000000000000000000000001 p
b0b001 q

#150
b0b0 .
#200
b0b1 .

b0b0 3
b0b0 i
b0b00000000000000000000000000000000000000000000000000000000000000000000000000000000000000000000000000000000000000000000000001111111 k
b0b00000000000000000000000000000000 p
b0b000 q

#250
b0b0 .
#300
b0b1 .

b0b0 -
b0b1 3
b0b0 K
b0b0 [
b0b0 c
b0b1 i
b0b00000000000000000000000000000001 p
b0b001 q

#350
b0b0 .
#400
b0b1 .

b0b00000000000000000000000000000000000000000000000000000000000000001100000001111111001111111111111110000110100000111111011111111111 0
b0b1 4
b0b1 h
b0b00000000000000000000000000000000 p
b0b1 r

#450
b0b0 .
#500
b0b1 .

b0b0 $
b0b00000000000000000000000000000000001111000000011100101100100001010000000000000000000000000000000000000000000000000000000000000000 0
b0b0 3
b0b0 f
b0b0 i
b0b010 q
b0b0 r
b0b00000000000000000000000000000000000000000000000000000000000000001100000001111111001111111111111110000110100000111111011111111111 s

#550
b0b0 .
#600
b0b1 .

b0b00000000000000000000000000000001 p

#650
b0b0 .
#700
b0b1 .

b0b00000000000000000000000000000010 p

#750
b0b0 .
#800
b0b1 .

b0b1 =
b0b1 J
b0b1 `
b0b00000000000000000000000000000011 p

#850
b0b0 .
#900
b0b1 .

b0b0 =
b0b0 J
b0b0 `
b0b00000000000000000000000000000100 p

#950
b0b0 .
#1000
b0b1 .

b0b1 n
b0b00000000000000000000001111111111 o
b0b00000000000000000000000000000000 p
b0b011 q

#1050
b0b0 .
#1100
b0b1 .

b0b1 #
b0b1 b
b0b0001 m
b0b00000000000000000000000000000001 p

#1150
b0b0 .
#1200
b0b1 .

b0b0010 m
b0b00000000000000000000000000000010 p

#1250
b0b0 .
#1300
b0b1 .

b0b0011 m
b0b00000000000000000000000000000011 p

#1350
b0b0 .
#1400
b0b1 .

b0b0000 m
b0b00000000000000000000000000000100 p

#1450
b0b0 .
#1500
b0b1 .

b0b0 #
b0b0 b
b0b00000000000000000000000000000000000000000000000000000000000000000000000000000000000000000000000000000000000000000000000001111110 k
b0b0001 m
b0b00000000000000000000000000000101 p

#1550
b0b0 .
#1600
b0b1 .

b0b0010 m
b0b00000000000000000000000000000110 p

#1650
b0b0 .
#1700
b0b1 .

b0b0011 m
b0b00000000000000000000000000000111 p

#1750
b0b0 .
#1800
b0b1 .

b0b0000 m
b0b00000000000000000000000000001000 p

#1850
b0b0 .
#1900
b0b1 .

b0b1 #
b0b1 b
b0b0001 m
b0b00000000000000000000000000001001 p

#1950
b0b0 .
#2000
b0b1 .

b0b0010 m
b0b00000000000000000000000000001010 p

#2050
b0b0 .
#2100
b0b1 .

b0b0011 m
b0b00000000000000000000000000001011 p

#2150
b0b0 .
#2200
b0b1 .

b0b0000 m
b0b00000000000000000000000000001100 p

#2250
b0b0 .
#2300
b0b1 .

b0b0 #
b0b0 b
b0b00000000000000000000000000000000000000000000000000000000000000000000000000000000000000000000000000000000000000000000000001111101 k
b0b0001 m
b0b00000000000000000000000000001101 p

#2350
b0b0 .
#2400
b0b1 .

b0b0010 m
b0b00000000000000000000000000001110 p

#2450
b0b0 .
#2500
b0b1 .

b0b0011 m
b0b00000000000000000000000000001111 p

#2550
b0b0 .
#2600
b0b1 .

b0b0000 m
b0b00000000000000000000000000010000 p

#2650
b0b0 .
#2700
b0b1 .

b0b1 #
b0b1 b
b0b0001 m
b0b00000000000000000000000000010001 p

#2750
b0b0 .
#2800
b0b1 .

b0b0010 m
b0b00000000000000000000000000010010 p

#2850
b0b0 .
#2900
b0b1 .

b0b0011 m
b0b00000000000000000000000000010011 p

#2950
b0b0 .
#3000
b0b1 .

b0b0000 m
b0b00000000000000000000000000010100 p

#3050
b0b0 .
#3100
b0b1 .

b0b0 #
b0b0 b
b0b00000000000000000000000000000000000000000000000000000000000000000000000000000000000000000000000000000000000000000000000001111100 k
b0b0001 m
b0b00000000000000000000000000010101 p

#3150
b0b0 .
#3200
b0b1 .

b0b0010 m
b0b00000000000000000000000000010110 p

#3250
b0b0 .
#3300
b0b1 .

b0b0011 m
b0b00000000000000000000000000010111 p

#3350
b0b0 .
#3400
b0b1 .

b0b0000 m
b0b00000000000000000000000000011000 p

#3450
b0b0 .
#3500
b0b1 .

b0b1 #
b0b1 b
b0b0001 m
b0b00000000000000000000000000011001 p

#3550
b0b0 .
#3600
b0b1 .

b0b0010 m
b0b00000000000000000000000000011010 p

#3650
b0b0 .
#3700
b0b1 .

b0b0011 m
b0b00000000000000000000000000011011 p

#3750
b0b0 .
#3800
b0b1 .

b0b0000 m
b0b00000000000000000000000000011100 p

#3850
b0b0 .
#3900
b0b1 .

b0b0 #
b0b0 b
b0b00000000000000000000000000000000000000000000000000000000000000000000000000000000000000000000000000000000000000000000000001111011 k
b0b0001 m
b0b00000000000000000000000000011101 p

#3950
b0b0 .
#4000
b0b1 .

b0b0010 m
b0b00000000000000000000000000011110 p

#4050
b0b0 .
#4100
b0b1 .

b0b0011 m
b0b00000000000000000000000000011111 p

#4150
b0b0 .
#4200
b0b1 .

b0b0000 m
b0b00000000000000000000000000100000 p

#4250
b0b0 .
#4300
b0b1 .

b0b1 #
b0b1 b
b0b0001 m
b0b00000000000000000000000000100001 p

#4350
b0b0 .
#4400
b0b1 .

b0b0010 m
b0b00000000000000000000000000100010 p

#4450
b0b0 .
#4500
b0b1 .

b0b0011 m
b0b00000000000000000000000000100011 p

#4550
b0b0 .
#4600
b0b1 .

b0b0000 m
b0b00000000000000000000000000100100 p

#4650
b0b0 .
#4700
b0b1 .

b0b0 #
b0b0 b
b0b00000000000000000000000000000000000000000000000000000000000000000000000000000000000000000000000000000000000000000000000001111010 k
b0b0001 m
b0b00000000000000000000000000100101 p

#4750
b0b0 .
#4800
b0b1 .

b0b0010 m
b0b00000000000000000000000000100110 p

#4850
b0b0 .
#4900
b0b1 .

b0b0011 m
b0b00000000000000000000000000100111 p

#4950
b0b0 .
#5000
b0b1 .

b0b0000 m
b0b00000000000000000000000000101000 p

#5050
b0b0 .
#5100
b0b1 .

b0b1 #
b0b1 b
b0b0001 m
b0b00000000000000000000000000101001 p

#5150
b0b0 .
#5200
b0b1 .

b0b0010 m
b0b00000000000000000000000000101010 p

#5250
b0b0 .
#5300
b0b1 .

b0b0011 m
b0b00000000000000000000000000101011 p

#5350
b0b0 .
#5400
b0b1 .

b0b0000 m
b0b00000000000000000000000000101100 p

#5450
b0b0 .
#5500
b0b1 .

b0b0 #
b0b0 b
b0b00000000000000000000000000000000000000000000000000000000000000000000000000000000000000000000000000000000000000000000000001111001 k
b0b0001 m
b0b00000000000000000000000000101101 p

#5550
b0b0 .
#5600
b0b1 .

b0b0010 m
b0b00000000000000000000000000101110 p

#5650
b0b0 .
#5700
b0b1 .

b0b0011 m
b0b00000000000000000000000000101111 p

#5750
b0b0 .
#5800
b0b1 .

b0b0000 m
b0b00000000000000000000000000110000 p

#5850
b0b0 .
#5900
b0b1 .

b0b1 #
b0b1 b
b0b0001 m
b0b00000000000000000000000000110001 p

#5950
b0b0 .
#6000
b0b1 .

b0b0010 m
b0b00000000000000000000000000110010 p

#6050
b0b0 .
#6100
b0b1 .

b0b0011 m
b0b00000000000000000000000000110011 p

#6150
b0b0 .
#6200
b0b1 .

b0b0000 m
b0b00000000000000000000000000110100 p

#6250
b0b0 .
#6300
b0b1 .

b0b0 #
b0b0 b
b0b00000000000000000000000000000000000000000000000000000000000000000000000000000000000000000000000000000000000000000000000001111000 k
b0b0001 m
b0b00000000000000000000000000110101 p

#6350
b0b0 .
#6400
b0b1 .

b0b0010 m
b0b00000000000000000000000000110110 p

#6450
b0b0 .
#6500
b0b1 .

b0b0011 m
b0b00000000000000000000000000110111 p

#6550
b0b0 .
#6600
b0b1 .

b0b0000 m
b0b00000000000000000000000000111000 p

#6650
b0b0 .
#6700
b0b1 .

b0b1 #
b0b1 b
b0b0001 m
b0b00000000000000000000000000111001 p

#6750
b0b0 .
#6800
b0b1 .

b0b0010 m
b0b00000000000000000000000000111010 p

#6850
b0b0 .
#6900
b0b1 .

b0b0011 m
b0b00000000000000000000000000111011 p

#6950
b0b0 .
#7000
b0b1 .

b0b0000 m
b0b00000000000000000000000000111100 p

#7050
b0b0 .
#7100
b0b1 .

b0b0 #
b0b0 b
b0b00000000000000000000000000000000000000000000000000000000000000000000000000000000000000000000000000000000000000000000000001110111 k
b0b0001 m
b0b00000000000000000000000000111101 p

#7150
b0b0 .
#7200
b0b1 .

b0b0010 m
b0b00000000000000000000000000111110 p

#7250
b0b0 .
#7300
b0b1 .

b0b0011 m
b0b00000000000000000000000000111111 p

#7350
b0b0 .
#7400
b0b1 .

b0b0000 m
b0b00000000000000000000000001000000 p

#7450
b0b0 .
#7500
b0b1 .

b0b1 #
b0b1 b
b0b0001 m
b0b00000000000000000000000001000001 p

#7550
b0b0 .
#7600
b0b1 .

b0b0010 m
b0b00000000000000000000000001000010 p

#7650
b0b0 .
#7700
b0b1 .

b0b0011 m
b0b00000000000000000000000001000011 p

#7750
b0b0 .
#7800
b0b1 .

b0b0000 m
b0b00000000000000000000000001000100 p

#7850
b0b0 .
#7900
b0b1 .

b0b0 #
b0b0 b
b0b00000000000000000000000000000000000000000000000000000000000000000000000000000000000000000000000000000000000000000000000001110110 k
b0b0001 m
b0b00000000000000000000000001000101 p

#7950
b0b0 .
#8000
b0b1 .

b0b0010 m
b0b00000000000000000000000001000110 p

#8050
b0b0 .
#8100
b0b1 .

b0b0011 m
b0b00000000000000000000000001000111 p

#8150
b0b0 .
#8200
b0b1 .

b0b0000 m
b0b00000000000000000000000001001000 p

#8250
b0b0 .
#8300
b0b1 .

b0b1 #
b0b1 b
b0b0001 m
b0b00000000000000000000000001001001 p

#8350
b0b0 .
#8400
b0b1 .

b0b0010 m
b0b00000000000000000000000001001010 p

#8450
b0b0 .
#8500
b0b1 .

b0b0011 m
b0b00000000000000000000000001001011 p

#8550
b0b0 .
#8600
b0b1 .

b0b0000 m
b0b00000000000000000000000001001100 p

#8650
b0b0 .
#8700
b0b1 .

b0b0 #
b0b0 b
b0b00000000000000000000000000000000000000000000000000000000000000000000000000000000000000000000000000000000000000000000000001110101 k
b0b0001 m
b0b00000000000000000000000001001101 p

#8750
b0b0 .
#8800
b0b1 .

b0b0010 m
b0b00000000000000000000000001001110 p

#8850
b0b0 .
#8900
b0b1 .

b0b0011 m
b0b00000000000000000000000001001111 p

#8950
b0b0 .
#9000
b0b1 .

b0b0000 m
b0b00000000000000000000000001010000 p

#9050
b0b0 .
#9100
b0b1 .

b0b1 #
b0b1 b
b0b0001 m
b0b00000000000000000000000001010001 p

#9150
b0b0 .
#9200
b0b1 .

b0b0010 m
b0b00000000000000000000000001010010 p

#9250
b0b0 .
#9300
b0b1 .

b0b0011 m
b0b00000000000000000000000001010011 p

#9350
b0b0 .
#9400
b0b1 .

b0b0000 m
b0b00000000000000000000000001010100 p

#9450
b0b0 .
#9500
b0b1 .

b0b0 #
b0b0 b
b0b00000000000000000000000000000000000000000000000000000000000000000000000000000000000000000000000000000000000000000000000001110100 k
b0b0001 m
b0b00000000000000000000000001010101 p

#9550
b0b0 .
#9600
b0b1 .

b0b0010 m
b0b00000000000000000000000001010110 p

#9650
b0b0 .
#9700
b0b1 .

b0b0011 m
b0b00000000000000000000000001010111 p

#9750
b0b0 .
#9800
b0b1 .

b0b0000 m
b0b00000000000000000000000001011000 p

#9850
b0b0 .
#9900
b0b1 .

b0b1 #
b0b1 b
b0b0001 m
b0b00000000000000000000000001011001 p

#9950
b0b0 .
#10000
b0b1 .

b0b0010 m
b0b00000000000000000000000001011010 p

#10050
b0b0 .
#10100
b0b1 .

b0b0011 m
b0b00000000000000000000000001011011 p

#10150
b0b0 .
#10200
b0b1 .

b0b0000 m
b0b00000000000000000000000001011100 p

#10250
b0b0 .
#10300
b0b1 .

b0b0 #
b0b0 b
b0b00000000000000000000000000000000000000000000000000000000000000000000000000000000000000000000000000000000000000000000000001110011 k
b0b0001 m
b0b00000000000000000000000001011101 p

#10350
b0b0 .
#10400
b0b1 .

b0b0010 m
b0b00000000000000000000000001011110 p

#10450
b0b0 .
#10500
b0b1 .

b0b0011 m
b0b00000000000000000000000001011111 p

#10550
b0b0 .
#10600
b0b1 .

b0b0000 m
b0b00000000000000000000000001100000 p

#10650
b0b0 .
#10700
b0b1 .

b0b1 #
b0b1 b
b0b0001 m
b0b00000000000000000000000001100001 p

#10750
b0b0 .
#10800
b0b1 .

b0b0010 m
b0b00000000000000000000000001100010 p

#10850
b0b0 .
#10900
b0b1 .

b0b0011 m
b0b00000000000000000000000001100011 p

#10950
b0b0 .
#11000
b0b1 .

b0b0000 m
b0b00000000000000000000000001100100 p

#11050
b0b0 .
#11100
b0b1 .

b0b0 #
b0b0 b
b0b00000000000000000000000000000000000000000000000000000000000000000000000000000000000000000000000000000000000000000000000001110010 k
b0b0001 m
b0b00000000000000000000000001100101 p

#11150
b0b0 .
#11200
b0b1 .

b0b0010 m
b0b00000000000000000000000001100110 p

#11250
b0b0 .
#11300
b0b1 .

b0b0011 m
b0b00000000000000000000000001100111 p

#11350
b0b0 .
#11400
b0b1 .

b0b0000 m
b0b00000000000000000000000001101000 p

#11450
b0b0 .
#11500
b0b1 .

b0b1 #
b0b1 b
b0b0001 m
b0b00000000000000000000000001101001 p

#11550
b0b0 .
#11600
b0b1 .

b0b0010 m
b0b00000000000000000000000001101010 p

#11650
b0b0 .
#11700
b0b1 .

b0b0011 m
b0b00000000000000000000000001101011 p

#11750
b0b0 .
#11800
b0b1 .

b0b0000 m
b0b00000000000000000000000001101100 p

#11850
b0b0 .
#11900
b0b1 .

b0b0 #
b0b0 b
b0b00000000000000000000000000000000000000000000000000000000000000000000000000000000000000000000000000000000000000000000000001110001 k
b0b0001 m
b0b00000000000000000000000001101101 p

#11950
b0b0 .
#12000
b0b1 .

b0b0010 m
b0b00000000000000000000000001101110 p

#12050
b0b0 .
#12100
b0b1 .

b0b0011 m
b0b00000000000000000000000001101111 p

#12150
b0b0 .
#12200
b0b1 .

b0b0000 m
b0b00000000000000000000000001110000 p

#12250
b0b0 .
#12300
b0b1 .

b0b1 #
b0b1 b
b0b0001 m
b0b00000000000000000000000001110001 p

#12350
b0b0 .
#12400
b0b1 .

b0b0010 m
b0b00000000000000000000000001110010 p

#12450
b0b0 .
#12500
b0b1 .

b0b0011 m
b0b00000000000000000000000001110011 p

#12550
b0b0 .
#12600
b0b1 .

b0b0000 m
b0b00000000000000000000000001110100 p

#12650
b0b0 .
#12700
b0b1 .

b0b0 #
b0b0 b
b0b00000000000000000000000000000000000000000000000000000000000000000000000000000000000000000000000000000000000000000000000001110000 k
b0b0001 m
b0b00000000000000000000000001110101 p

#12750
b0b0 .
#12800
b0b1 .

b0b0010 m
b0b00000000000000000000000001110110 p

#12850
b0b0 .
#12900
b0b1 .

b0b0011 m
b0b00000000000000000000000001110111 p

#12950
b0b0 .
#13000
b0b1 .

b0b0000 m
b0b00000000000000000000000001111000 p

#13050
b0b0 .
#13100
b0b1 .

b0b1 #
b0b1 b
b0b0001 m
b0b00000000000000000000000001111001 p

#13150
b0b0 .
#13200
b0b1 .

b0b0010 m
b0b00000000000000000000000001111010 p

#13250
b0b0 .
#13300
b0b1 .

b0b0011 m
b0b00000000000000000000000001111011 p

#13350
b0b0 .
#13400
b0b1 .

b0b0000 m
b0b00000000000000000000000001111100 p

#13450
b0b0 .
#13500
b0b1 .

b0b0 #
b0b0 b
b0b00000000000000000000000000000000000000000000000000000000000000000000000000000000000000000000000000000000000000000000000001101111 k
b0b0001 m
b0b00000000000000000000000001111101 p

#13550
b0b0 .
#13600
b0b1 .

b0b0010 m
b0b00000000000000000000000001111110 p

#13650
b0b0 .
#13700
b0b1 .

b0b0011 m
b0b00000000000000000000000001111111 p

#13750
b0b0 .
#13800
b0b1 .

b0b0000 m
b0b00000000000000000000000010000000 p

#13850
b0b0 .
#13900
b0b1 .

b0b1 #
b0b1 b
b0b0001 m
b0b00000000000000000000000010000001 p

#13950
b0b0 .
#14000
b0b1 .

b0b0010 m
b0b00000000000000000000000010000010 p

#14050
b0b0 .
#14100
b0b1 .

b0b0011 m
b0b00000000000000000000000010000011 p

#14150
b0b0 .
#14200
b0b1 .

b0b0000 m
b0b00000000000000000000000010000100 p

#14250
b0b0 .
#14300
b0b1 .

b0b0 #
b0b0 b
b0b00000000000000000000000000000000000000000000000000000000000000000000000000000000000000000000000000000000000000000000000001101110 k
b0b0001 m
b0b00000000000000000000000010000101 p

#14350
b0b0 .
#14400
b0b1 .

b0b0010 m
b0b00000000000000000000000010000110 p

#14450
b0b0 .
#14500
b0b1 .

b0b0011 m
b0b00000000000000000000000010000111 p

#14550
b0b0 .
#14600
b0b1 .

b0b0000 m
b0b00000000000000000000000010001000 p

#14650
b0b0 .
#14700
b0b1 .

b0b1 #
b0b1 b
b0b0001 m
b0b00000000000000000000000010001001 p

#14750
b0b0 .
#14800
b0b1 .

b0b0010 m
b0b00000000000000000000000010001010 p

#14850
b0b0 .
#14900
b0b1 .

b0b0011 m
b0b00000000000000000000000010001011 p

#14950
b0b0 .
#15000
b0b1 .

b0b0000 m
b0b00000000000000000000000010001100 p

#15050
b0b0 .
#15100
b0b1 .

b0b0 #
b0b0 b
b0b00000000000000000000000000000000000000000000000000000000000000000000000000000000000000000000000000000000000000000000000001101101 k
b0b0001 m
b0b00000000000000000000000010001101 p

#15150
b0b0 .
#15200
b0b1 .

b0b0010 m
b0b00000000000000000000000010001110 p

#15250
b0b0 .
#15300
b0b1 .

b0b0011 m
b0b00000000000000000000000010001111 p

#15350
b0b0 .
#15400
b0b1 .

b0b0000 m
b0b00000000000000000000000010010000 p

#15450
b0b0 .
#15500
b0b1 .

b0b1 #
b0b1 b
b0b0001 m
b0b00000000000000000000000010010001 p

#15550
b0b0 .
#15600
b0b1 .

b0b0010 m
b0b00000000000000000000000010010010 p

#15650
b0b0 .
#15700
b0b1 .

b0b0011 m
b0b00000000000000000000000010010011 p

#15750
b0b0 .
#15800
b0b1 .

b0b0000 m
b0b00000000000000000000000010010100 p

#15850
b0b0 .
#15900
b0b1 .

b0b0 #
b0b0 b
b0b00000000000000000000000000000000000000000000000000000000000000000000000000000000000000000000000000000000000000000000000001101100 k
b0b0001 m
b0b00000000000000000000000010010101 p

#15950
b0b0 .
#16000
b0b1 .

b0b0010 m
b0b00000000000000000000000010010110 p

